{"label":"iteratelist","statements":[{"label":"iterateList","statementType":"METHOD","children":[{"label":"modifiers","children":[{"label":"public"}]},{"label":"type","children":[{"label":"void"}]},{"label":"parameters","children":[{"label":"Parameter","children":[{"label":"type","children":[{"label":"List"}]},{"label":"name","children":[{"label":"strings"}]}]}]},{"label":"BLOCK"}],"statement":true},{"label":"FOREACH","statementType":"FOREACH","children":[{"label":"variable","children":[{"label":"VariableDeclarationExpr","children":[{"label":"VariableDeclarator","children":[{"label":"String"},{"label":"string"},{"label":"init","children":[{"label":"<EMPTY>"}]}]}]}]},{"label":"iterable","children":[{"label":"strings"}]},{"label":"BLOCK"}],"statement":true},{"label":"EXPRESSION","statementType":"EXPRESSION","children":[{"label":"MethodCallExpr","children":[{"label":"scope","children":[{"label":"FieldAccessExpr","children":[{"label":"scope","children":[{"label":"System"}]},{"label":"out"}]}]},{"label":"name","children":[{"label":"println"}]},{"label":"arguments","children":[{"label":"string"}]}]}],"statement":true},{"label":"END","statement":true},{"label":"END","statement":true}]}
{"label":"foo","statements":[{"label":"foo","statementType":"METHOD","children":[{"label":"modifiers","children":[{"label":"private"},{"label":"synchronized"}]},{"label":"type","children":[{"label":"float"}]},{"label":"parameters","children":[{"label":"Parameter","children":[{"label":"type","children":[{"label":"float"}]},{"label":"name","children":[{"label":"f"}]}]}]},{"label":"BLOCK"}],"statement":true},{"label":"ASSERT","statementType":"ASSERT","children":[{"label":"BinaryExpr","children":[{"label":"f"},{"label":">"},{"label":"0"}]}],"statement":true},{"label":"EXPRESSION","statementType":"EXPRESSION","children":[{"label":"VariableDeclarationExpr","children":[{"label":"VariableDeclarator","children":[{"label":"float"},{"label":"factor"},{"label":"init","children":[{"label":"0.5"}]}]}]}],"statement":true},{"label":"RETURN","statementType":"RETURN","children":[{"label":"ConditionalExpr","children":[{"label":"BinaryExpr","children":[{"label":"f"},{"label":"=="},{"label":"1"}]},{"label":"BinaryExpr","children":[{"label":"factor"},{"label":"*"},{"label":"f"}]},{"label":"BinaryExpr","children":[{"label":"factor"},{"label":"/"},{"label":"f"}]}]}],"statement":true},{"label":"END","statement":true}]}
{"label":"bar","statements":[{"label":"bar","statementType":"METHOD","children":[{"label":"type","children":[{"label":"float"}]},{"label":"BLOCK"}],"statement":true},{"label":"SYNCHRONIZED","statementType":"SYNCHRONIZED","children":[{"label":"expression","children":[{"label":"this"}]},{"label":"BLOCK"}],"statement":true},{"label":"RETURN","statementType":"RETURN","children":[{"label":"MethodCallExpr","children":[{"label":"name","children":[{"label":"foo"}]},{"label":"arguments","children":[{"label":"CastExpr","children":[{"label":"float"},{"label":"42.23"}]}]}]}],"statement":true},{"label":"END","statement":true},{"label":"END","statement":true}]}
{"label":"loop","statements":[{"label":"loop","statementType":"METHOD","children":[{"label":"type","children":[{"label":"void"}]},{"label":"BLOCK"}],"statement":true},{"label":"FOR","statementType":"FOR","children":[{"label":"init","children":[{"label":"VariableDeclarationExpr","children":[{"label":"VariableDeclarator","children":[{"label":"int"},{"label":"i"},{"label":"init","children":[{"label":"0"}]}]}]}]},{"label":"compare","children":[{"label":"BinaryExpr","children":[{"label":"i"},{"label":"<"},{"label":"42"}]}]},{"label":"update","children":[{"label":"UnaryExpr","children":[{"label":"++"},{"label":"i"}]}]},{"label":"BLOCK"}],"statement":true},{"label":"FOR","statementType":"FOR","children":[{"label":"init","children":[{"label":"VariableDeclarationExpr","children":[{"label":"VariableDeclarator","children":[{"label":"int"},{"label":"j"},{"label":"init","children":[{"label":"0"}]}]}]}]},{"label":"compare","children":[{"label":"BinaryExpr","children":[{"label":"j"},{"label":"<"},{"label":"23"}]}]},{"label":"update","children":[{"label":"UnaryExpr","children":[{"label":"++"},{"label":"j"}]}]},{"label":"BLOCK"}],"statement":true},{"label":"IF","statementType":"IF","children":[{"label":"condition","children":[{"label":"BinaryExpr","children":[{"label":"BinaryExpr","children":[{"label":"BinaryExpr","children":[{"label":"i"},{"label":"*"},{"label":"j"}]},{"label":"%"},{"label":"1337"}]},{"label":"=="},{"label":"0"}]}]},{"label":"BLOCK"}],"statement":true},{"label":"CONTINUE","statement":true},{"label":"END","statement":true},{"label":"IF","statementType":"IF","children":[{"label":"condition","children":[{"label":"BinaryExpr","children":[{"label":"BinaryExpr","children":[{"label":"i"},{"label":"+"},{"label":"j"}]},{"label":"=="},{"label":"65"}]}]},{"label":"BLOCK"}],"statement":true},{"label":"BREAK","statement":true},{"label":"END","statement":true},{"label":"END","statement":true},{"label":"END","statement":true},{"label":"END","statement":true}]}
{"label":"loop2","statements":[{"label":"loop2","statementType":"METHOD","children":[{"label":"type","children":[{"label":"void"}]},{"label":"BLOCK"}],"statement":true},{"label":"FOR","statementType":"FOR","children":[{"label":"init","children":[{"label":"VariableDeclarationExpr","children":[{"label":"VariableDeclarator","children":[{"label":"int"},{"label":"i"},{"label":"init","children":[{"label":"0"}]}]}]}]},{"label":"compare","children":[{"label":"BinaryExpr","children":[{"label":"i"},{"label":"<"},{"label":"42"}]}]},{"label":"update","children":[{"label":"UnaryExpr","children":[{"label":"++"},{"label":"i"}]}]},{"label":"BLOCK"}],"statement":true},{"label":"FOR","statementType":"FOR","children":[{"label":"init","children":[{"label":"VariableDeclarationExpr","children":[{"label":"VariableDeclarator","children":[{"label":"int"},{"label":"j"},{"label":"init","children":[{"label":"0"}]}]}]}]},{"label":"compare","children":[{"label":"BinaryExpr","children":[{"label":"j"},{"label":"<"},{"label":"23"}]}]},{"label":"update","children":[{"label":"UnaryExpr","children":[{"label":"++"},{"label":"j"}]}]},{"label":"BLOCK"}],"statement":true},{"label":"IF","statementType":"IF","children":[{"label":"condition","children":[{"label":"BinaryExpr","children":[{"label":"BinaryExpr","children":[{"label":"BinaryExpr","children":[{"label":"i"},{"label":"*"},{"label":"j"}]},{"label":"%"},{"label":"1337"}]},{"label":"=="},{"label":"0"}]}]},{"label":"BLOCK"}],"statement":true},{"label":"CONTINUE","statementType":"CONTINUE","children":[{"label":"foo"}],"statement":true},{"label":"END","statement":true},{"label":"IF","statementType":"IF","children":[{"label":"condition","children":[{"label":"BinaryExpr","children":[{"label":"BinaryExpr","children":[{"label":"i"},{"label":"+"},{"label":"j"}]},{"label":"=="},{"label":"65"}]}]},{"label":"BLOCK"}],"statement":true},{"label":"BREAK","statementType":"BREAK","children":[{"label":"foo"}],"statement":true},{"label":"END","statement":true},{"label":"END","statement":true},{"label":"END","statement":true},{"label":"LABELLED","statementType":"LABELLED","children":[{"label":"label","children":[{"label":"foo"}]}],"statement":true},{"label":"THROW","statementType":"THROW","children":[{"label":"ObjectCreationExpr","children":[{"label":"Exception"}]}],"statement":true},{"label":"EMPTY","statement":true},{"label":"END","statement":true}]}
{"label":"local","statements":[{"label":"local","statementType":"METHOD","children":[{"label":"type","children":[{"label":"void"}]},{"label":"BLOCK","children":[{"label":"LocalClassDeclarationStmt"}]}],"statement":true},{"label":"EXPRESSION","statementType":"EXPRESSION","children":[{"label":"VariableDeclarationExpr","children":[{"label":"VariableDeclarator","children":[{"label":"LocalClass"},{"label":"localClass"},{"label":"init","children":[{"label":"ObjectCreationExpr","children":[{"label":"LocalClass"}]}]}]}]}],"statement":true},{"label":"END","statement":true}]}
{"label":"arraycreateexpr","statements":[{"label":"arrayCreateExpr","statementType":"METHOD","children":[{"label":"type","children":[{"label":"int[][]"}]},{"label":"BLOCK"}],"statement":true},{"label":"RETURN","statementType":"RETURN","children":[{"label":"ArrayCreationExpr","children":[{"label":"int"},{"label":"dimension","children":[{"label":"[]"},{"label":"[]"}]},{"label":"init","children":[{"label":"ArrayInitializerExpr","children":[{"label":"ArrayInitializerExpr","children":[{"label":"1"}]},{"label":"ArrayInitializerExpr","children":[{"label":"2"},{"label":"3"}]}]}]}]}],"statement":true},{"label":"END","statement":true}]}
{"label":"classexpr","statements":[{"label":"classExpr","statementType":"METHOD","children":[{"label":"type","children":[{"label":"Class<?>"}]},{"label":"BLOCK"}],"statement":true},{"label":"RETURN","statementType":"RETURN","children":[{"label":"ClassExpr","children":[{"label":"MissingConstructsExample"}]}],"statement":true},{"label":"END","statement":true}]}
{"label":"instanceof","statements":[{"label":"instanceOf","statementType":"METHOD","children":[{"label":"type","children":[{"label":"boolean"}]},{"label":"parameters","children":[{"label":"Parameter","children":[{"label":"type","children":[{"label":"Class"}]},{"label":"name","children":[{"label":"c"}]}]}]},{"label":"BLOCK"}],"statement":true},{"label":"IF","statementType":"IF","children":[{"label":"condition","children":[{"label":"InstanceOfExpr","children":[{"label":"c"},{"label":"Object"}]}]},{"label":"BLOCK"}],"statement":true},{"label":"RETURN","statementType":"RETURN","children":[{"label":"true"}],"statement":true},{"label":"END","statement":true},{"label":"ELSE","statementType":"ELSE","children":[{"label":"BLOCK","children":[{"label":"BLOCK"}]}],"statement":true},{"label":"RETURN","statementType":"RETURN","children":[{"label":"false"}],"statement":true},{"label":"END","statement":true},{"label":"END","statement":true},{"label":"END","statement":true}]}
{"label":"tostring","statements":[{"label":"toString","statementType":"METHOD","children":[{"label":"type","children":[{"label":"String"}]},{"label":"BLOCK"}],"statement":true},{"label":"EXPRESSION","statementType":"EXPRESSION","children":[{"label":"MethodCallExpr","children":[{"label":"scope","children":[{"label":"FieldAccessExpr","children":[{"label":"scope","children":[{"label":"MissingConstructsExample"}]},{"label":"A"}]}]},{"label":"name","children":[{"label":"foo"}]},{"label":"arguments","children":[{"label":"CastExpr","children":[{"label":"IntersectionType","children":[{"label":"Serializable"},{"label":"Clonable"}]},{"label":"this"}]}]}]}],"statement":true},{"label":"RETURN","statementType":"RETURN","children":[{"label":"MethodCallExpr","children":[{"label":"scope","children":[{"label":"super"}]},{"label":"name","children":[{"label":"toString"}]}]}],"statement":true},{"label":"END","statement":true}]}
{"label":"pipeline","statements":[{"label":"pipeline","statementType":"METHOD","children":[{"label":"type","children":[{"label":"List<String>"}]},{"label":"parameters","children":[{"label":"Parameter","children":[{"label":"type","children":[{"label":"List"}]},{"label":"name","children":[{"label":"values"}]}]}]},{"label":"BLOCK"}],"statement":true},{"label":"RETURN","statementType":"RETURN","children":[{"label":"MethodCallExpr","children":[{"label":"scope","children":[{"label":"MethodCallExpr","children":[{"label":"scope","children":[{"label":"MethodCallExpr","children":[{"label":"scope","children":[{"label":"MethodCallExpr","children":[{"label":"scope","children":[{"label":"values"}]},{"label":"name","children":[{"label":"stream"}]}]}]},{"label":"name","children":[{"label":"filter"}]},{"label":"arguments"}]}]},{"label":"name","children":[{"label":"map"}]},{"label":"arguments","children":[{"label":"MethodReferenceExpr","children":[{"label":"Integer"},{"label":"toString"}]}]}]}]},{"label":"name","children":[{"label":"toList"}]}]}],"statement":true},{"label":"LAMBDA","statementType":"LAMBDA","children":[{"label":"parameters","children":[{"label":"Parameter","children":[{"label":"type","children":[{"label":"<UNKNOWN>"}]},{"label":"name","children":[{"label":"x"}]}]}]}],"statement":true},{"label":"EXPRESSION","statementType":"EXPRESSION","children":[{"label":"BinaryExpr","children":[{"label":"x"},{"label":">"},{"label":"0"}]}],"statement":true},{"label":"END","statement":true}]}
{"label":"foo","statements":[{"label":"foo","statementType":"METHOD","children":[{"label":"modifiers","children":[{"label":"static"}]},{"label":"type","children":[{"label":"void"}]},{"label":"parameters","children":[{"label":"Parameter","children":[{"label":"type","children":[{"label":"T"}]},{"label":"name","children":[{"label":"t"}]}]}]},{"label":"BLOCK","children":[{"label":"try"}]}],"statement":true},{"label":"TRY","statementType":"TRY","children":[{"label":"resources"},{"label":"BLOCK"}],"statement":true},{"label":"EXPRESSION","statementType":"EXPRESSION","children":[{"label":"MethodCallExpr","children":[{"label":"scope","children":[{"label":"t"}]},{"label":"name","children":[{"label":"clone"}]}]}],"statement":true},{"label":"END","statement":true},{"label":"CATCH","statementType":"CATCH","children":[{"label":"Parameter","children":[{"label":"type","children":[{"label":"UnionType","children":[{"label":"IllegalArgumentException"},{"label":"CloneNotSupportedException"}]}]},{"label":"name","children":[{"label":"e"}]}]},{"label":"BLOCK"}],"statement":true},{"label":"END","statement":true},{"label":"END","statement":true}]}
{"label":"printlist","statements":[{"label":"printList","statementType":"METHOD","children":[{"label":"modifiers","children":[{"label":"private"}]},{"label":"type","children":[{"label":"void"}]},{"label":"parameters","children":[{"label":"Parameter","children":[{"label":"type","children":[{"label":"List"}]},{"label":"name","children":[{"label":"c"}]}]}]},{"label":"BLOCK"}],"statement":true},{"label":"EXPRESSION","statementType":"EXPRESSION","children":[{"label":"VariableDeclarationExpr","children":[{"label":"VariableDeclarator","children":[{"label":"var"},{"label":"a"},{"label":"init","children":[{"label":"1"}]}]}]}],"statement":true},{"label":"EXPRESSION","statementType":"EXPRESSION","children":[{"label":"VariableDeclarationExpr","children":[{"label":"VariableDeclarator","children":[{"label":"char"},{"label":"c"},{"label":"init","children":[{"label":"a"}]}]}]}],"statement":true},{"label":"EXPRESSION","statementType":"EXPRESSION","children":[{"label":"VariableDeclarationExpr","children":[{"label":"VariableDeclarator","children":[{"label":"long"},{"label":"l"},{"label":"init","children":[{"label":"1"}]}]}]}],"statement":true},{"label":"EXPRESSION","statementType":"EXPRESSION","children":[{"label":"VariableDeclarationExpr","children":[{"label":"VariableDeclarator","children":[{"label":"long"},{"label":"j"},{"label":"init","children":[{"label":"9223372036854775808"}]}]}]}],"statement":true},{"label":"EXPRESSION","statementType":"EXPRESSION","children":[{"label":"VariableDeclarationExpr","children":[{"label":"VariableDeclarator","children":[{"label":"Object"},{"label":"o"},{"label":"init","children":[{"label":"null"}]}]}]}],"statement":true},{"label":"END","statement":true}]}
{"label":"array","statements":[{"label":"array","statementType":"METHOD","children":[{"label":"modifiers","children":[{"label":"private"}]},{"label":"type","children":[{"label":"int[][]"}]},{"label":"BLOCK"}],"statement":true},{"label":"RETURN","statementType":"RETURN","children":[{"label":"ArrayCreationExpr","children":[{"label":"int"},{"label":"dimension","children":[{"label":"arrayDimension","children":[{"label":"1"}]},{"label":"arrayDimension","children":[{"label":"2"}]}]}]}],"statement":true},{"label":"END","statement":true}]}
